/home/nburrell/dev/example-micro-service/src/main/java/com/atlassian/example/model/ExampleModel.java
/home/nburrell/dev/example-micro-service/src/main/java/com/atlassian/example/service/exception/ModelNotFoundException.java
/home/nburrell/dev/example-micro-service/src/main/java/com/atlassian/example/resource/ExampleModelResource.java
/home/nburrell/dev/example-micro-service/src/main/java/com/atlassian/example/ExampleApplication.java
/home/nburrell/dev/example-micro-service/src/main/java/com/atlassian/example/dao/ExampleModelDao.java
/home/nburrell/dev/example-micro-service/src/main/java/com/atlassian/example/service/ExampleModelService.java
/home/nburrell/dev/example-micro-service/src/main/java/com/atlassian/example/service/exception/DuplicateModelException.java
/home/nburrell/dev/example-micro-service/src/main/java/com/atlassian/example/configuration/ExampleApplicationConfiguration.java
/home/nburrell/dev/example-micro-service/src/main/java/com/atlassian/example/service/ExampleModelServiceImpl.java
/home/nburrell/dev/example-micro-service/src/main/java/com/atlassian/example/dao/ExampleModelDaoImpl.java
